{
    "page": 2,
    "total_results": 10000,
    "total_pages": 500,
    "results": [
        {
            "popularity": 123.267,
            "vote_count": 8884,
            "video": false,
            "poster_path": "/jpfkzbIXgKZqCZAkEkFH2VYF63s.jpg",
            "id": 920,
            "adult": false,
            "backdrop_path": "/a1MlbLBk5Sy6YvMbSuKfwGlDVlb.jpg",
            "original_language": "en",
            "original_title": "Cars",
            "genre_ids": [
                12,
                16,
                35,
                10751
            ],
            "title": "Cars",
            "vote_average": 6.7,
            "overview": "Lightning McQueen, a hotshot rookie race car driven to succeed, discovers that life is about the journey, not the finish line, when he finds himself unexpectedly detoured in the sleepy Route 66 town of Radiator Springs. On route across the country to the big Piston Cup Championship in California to compete against two seasoned pros, McQueen gets to know the town's offbeat characters.",
            "release_date": "2006-06-08"
        },
        {
            "popularity": 112.353,
            "vote_count": 262,
            "video": false,
            "poster_path": "/4YJNp1cquIkX8JxFwkKNEFQ9tgr.jpg",
            "id": 522212,
            "adult": false,
            "backdrop_path": "/4x2AKefQtj8TmzxyRJEEdAayj1V.jpg",
            "original_language": "en",
            "original_title": "Just Mercy",
            "genre_ids": [
                18,
                36
            ],
            "title": "Just Mercy",
            "vote_average": 8.1,
            "overview": "The powerful true story of Harvard-educated lawyer Bryan Stevenson, who goes to Alabama to defend the disenfranchised and wrongly condemned — including Walter McMillian, a man sentenced to death despite evidence proving his innocence. Bryan fights tirelessly for Walter with the system stacked against them.",
            "release_date": "2019-12-25"
        },
        {
            "popularity": 107.752,
            "vote_count": 3,
            "video": false,
            "poster_path": "/ef8k2EhmaU1CyhhnaBaIgnoA1JE.jpg",
            "id": 622327,
            "adult": false,
            "backdrop_path": "/nS2Z88iDoPuWHfKn79f9rlv1aL4.jpg",
            "original_language": "tl",
            "original_title": "The Panti Sisters",
            "genre_ids": [
                35,
                18,
                10749
            ],
            "title": "The Panti Sisters",
            "vote_average": 2.7,
            "overview": "Three gay sons are called back by their estranged and terminally ill father and given an offer they can't refuse: a ₱300 million inheritance in exchange for each of them giving him a grandchild.",
            "release_date": "2019-09-13"
        },
        {
            "popularity": 105.292,
            "vote_count": 1975,
            "video": false,
            "poster_path": "/6ApDtO7xaWAfPqfi2IARXIzj8QS.jpg",
            "id": 359724,
            "adult": false,
            "backdrop_path": "/n3UanIvmnBlH531pykuzNs4LbH6.jpg",
            "original_language": "en",
            "original_title": "Ford v Ferrari",
            "genre_ids": [
                28,
                18
            ],
            "title": "Ford v Ferrari",
            "vote_average": 7.8,
            "overview": "American car designer Carroll Shelby and the British-born driver Ken Miles work together to battle corporate interference, the laws of physics, and their own personal demons to build a revolutionary race car for Ford Motor Company and take on the dominating race cars of Enzo Ferrari at the 24 Hours of Le Mans in France in 1966.",
            "release_date": "2019-11-13"
        },
        {
            "popularity": 100.494,
            "id": 290859,
            "video": false,
            "vote_count": 1789,
            "vote_average": 6.3,
            "title": "Terminator: Dark Fate",
            "release_date": "2019-10-23",
            "original_language": "en",
            "original_title": "Terminator: Dark Fate",
            "genre_ids": [
                28,
                878
            ],
            "backdrop_path": "/riTANvQ8GKmQbgtC1ps3OfkU43A.jpg",
            "adult": false,
            "overview": "Decades after Sarah Connor prevented Judgment Day, a lethal new Terminator is sent to eliminate the future leader of the resistance. In a fight to save mankind, battle-hardened Sarah Connor teams up with an unexpected ally and an enhanced super soldier to stop the deadliest Terminator yet.",
            "poster_path": "/vqzNJRH4YyquRiWxCCOH0aXggHI.jpg"
        },
        {
            "popularity": 94.646,
            "vote_count": 516,
            "video": false,
            "poster_path": "/fePczipv6ZzDO2uoww4vTAu2Sq3.jpg",
            "id": 581600,
            "adult": false,
            "backdrop_path": "/ftODZXaXpWtV5XFD8gS9n9KwLDr.jpg",
            "original_language": "en",
            "original_title": "Spenser Confidential",
            "genre_ids": [
                28,
                35,
                53
            ],
            "title": "Spenser Confidential",
            "vote_average": 6.6,
            "overview": "Spenser, a former Boston patrolman who just got out from prison, teams up with Hawk, an aspiring fighter, to unravel the truth behind the death of two police officers.",
            "release_date": "2020-03-06"
        },
        {
            "popularity": 93.905,
            "vote_count": 72,
            "video": false,
            "poster_path": "/sm8iVzA7kRp0d4BSIsgXjsSBMKV.jpg",
            "id": 556678,
            "adult": false,
            "backdrop_path": "/5GbkL9DDRzq3A21nR7Gkv6cFGjq.jpg",
            "original_language": "en",
            "original_title": "Emma.",
            "genre_ids": [
                35,
                18
            ],
            "title": "Emma.",
            "vote_average": 7.1,
            "overview": "In 1800s England, a well-meaning but selfish young woman meddles in the love lives of her friends.",
            "release_date": "2020-02-13"
        },
        {
            "popularity": 93.012,
            "vote_count": 10,
            "video": false,
            "poster_path": "/o1D5kEPPOGReel6CipiKOY5tPJt.jpg",
            "id": 642657,
            "adult": false,
            "backdrop_path": "/eUFN7zot3iRSm19xKxxnm6Vxeot.jpg",
            "original_language": "id",
            "original_title": "Milea: Suara dari Dilan",
            "genre_ids": [
                18,
                10749
            ],
            "title": "Milea: Suara dari Dilan",
            "vote_average": 5.6,
            "overview": "Before the grand reunion, Dilan decided to write and retell his love story with Milea. This is Dilan's way of remembering Milea.",
            "release_date": "2020-02-13"
        },
        {
            "popularity": 89.375,
            "vote_count": 1173,
            "video": false,
            "poster_path": "/y95lQLnuNKdPAzw9F9Ab8kJ80c3.jpg",
            "id": 38700,
            "adult": false,
            "backdrop_path": "/upUy2QhMZEmtypPW3PdieKLAHxh.jpg",
            "original_language": "en",
            "original_title": "Bad Boys for Life",
            "genre_ids": [
                28,
                80,
                53
            ],
            "title": "Bad Boys for Life",
            "vote_average": 6.3,
            "overview": "Marcus and Mike are forced to confront new threats, career changes, and midlife crises as they join the newly created elite team AMMO of the Miami police department to take down the ruthless Armando Armas, the vicious leader of a Miami drug cartel.",
            "release_date": "2020-01-15"
        },
        {
            "popularity": 84.427,
            "vote_count": 17128,
            "video": false,
            "poster_path": "/7WsyChQLEftFiDOVTGkv3hFpyyt.jpg",
            "id": 299536,
            "adult": false,
            "backdrop_path": "/bOGkgRGdhrBYJSLpXaxhXVstddV.jpg",
            "original_language": "en",
            "original_title": "Avengers: Infinity War",
            "genre_ids": [
                28,
                12,
                878
            ],
            "title": "Avengers: Infinity War",
            "vote_average": 8.3,
            "overview": "As the Avengers and their allies have continued to protect the world from threats too large for any one hero to handle, a new danger has emerged from the cosmic shadows: Thanos. A despot of intergalactic infamy, his goal is to collect all six Infinity Stones, artifacts of unimaginable power, and use them to inflict his twisted will on all of reality. Everything the Avengers have fought for has led up to this moment - the fate of Earth and existence itself has never been more uncertain.",
            "release_date": "2018-04-25"
        },
        {
            "popularity": 81.685,
            "vote_count": 62,
            "video": false,
            "poster_path": "/im0jKiVtVyxynKVnzOyd6efbqYE.jpg",
            "id": 664413,
            "adult": false,
            "backdrop_path": "/nVAJWMwmPTmwhQLcsIFYvU0C9JI.jpg",
            "original_language": "es",
            "original_title": "365 Dni",
            "genre_ids": [
                18,
                10749
            ],
            "title": "365 Days",
            "vote_average": 5.8,
            "overview": "Laura, in order to save her relationship from falling apart, goes to Sicily, where she meets Massimo. A dangerous man, the head of a mafia family, kidnaps her and gives 365 days to love him.",
            "release_date": "2020-02-07"
        },
        {
            "popularity": 81.452,
            "vote_count": 373,
            "video": false,
            "poster_path": "/d9PhCnofBEeQGR3lwywTjWKBiXj.jpg",
            "id": 449924,
            "adult": false,
            "backdrop_path": "/ekP6EVxL81lZ4ivcqPsoZ72rY0h.jpg",
            "original_language": "cn",
            "original_title": "葉問4",
            "genre_ids": [
                28,
                18,
                36
            ],
            "title": "Ip Man 4: The Finale",
            "vote_average": 6,
            "overview": "Following the death of his wife, Ip Man travels to San Francisco to ease tensions between the local kung fu masters and his star student, Bruce Lee, while searching for a better future for his son.",
            "release_date": "2019-12-20"
        },
        {
            "popularity": 78.431,
            "vote_count": 4251,
            "video": false,
            "poster_path": "/l1DRl40x2OWUoPP42v8fjKdS1Z3.jpg",
            "id": 238636,
            "adult": false,
            "backdrop_path": "/zWGAnbxjjwY3xFGuOeR26LGbBlG.jpg",
            "original_language": "en",
            "original_title": "The Purge: Anarchy",
            "genre_ids": [
                27,
                53
            ],
            "title": "The Purge: Anarchy",
            "vote_average": 6.6,
            "overview": "One night per year, the government sanctions a 12-hour period in which citizens can commit any crime they wish -- including murder -- without fear of punishment or imprisonment. Leo, a sergeant who lost his son, plans a vigilante mission of revenge during the mayhem. However, instead of a death-dealing avenger, he becomes the unexpected protector of four innocent strangers who desperately need his help if they are to survive the night.",
            "release_date": "2014-07-17"
        },
        {
            "popularity": 78.244,
            "vote_count": 2541,
            "video": false,
            "poster_path": "/7GsM4mtM0worCtIVeiQt28HieeN.jpg",
            "id": 515001,
            "adult": false,
            "backdrop_path": "/agoBZfL1q5G79SD0npArSlJn8BH.jpg",
            "original_language": "en",
            "original_title": "Jojo Rabbit",
            "genre_ids": [
                35,
                18,
                10752
            ],
            "title": "Jojo Rabbit",
            "vote_average": 8.1,
            "overview": "A World War II satire that follows a lonely German boy whose world view is turned upside down when he discovers his single mother is hiding a young Jewish girl in their attic. Aided only by his idiotic imaginary friend, Adolf Hitler, Jojo must confront his blind nationalism.",
            "release_date": "2019-10-18"
        },
        {
            "popularity": 74.517,
            "vote_count": 5104,
            "video": false,
            "poster_path": "/3iYQTLGoy7QnjcUYRJy4YrAgGvp.jpg",
            "id": 420817,
            "adult": false,
            "backdrop_path": "/rVqY0Bo4Npf6EIONUROxjYAJfmD.jpg",
            "original_language": "en",
            "original_title": "Aladdin",
            "genre_ids": [
                12,
                35,
                14,
                10749,
                10751
            ],
            "title": "Aladdin",
            "vote_average": 7,
            "overview": "A kindhearted street urchin named Aladdin embarks on a magical adventure after finding a lamp that releases a wisecracking genie while a power-hungry Grand Vizier vies for the same lamp that has the power to make their deepest wishes come true.",
            "release_date": "2019-05-22"
        },
        {
            "popularity": 74.497,
            "vote_count": 370,
            "video": false,
            "poster_path": "/6umLdWyHyeu7J9KDQVmjFHUb3KZ.jpg",
            "id": 200085,
            "adult": false,
            "backdrop_path": "/yRrPRCCEGKt8drF37K4o8Mk8Gpq.jpg",
            "original_language": "ko",
            "original_title": "감기",
            "genre_ids": [
                28,
                18
            ],
            "title": "The Flu",
            "vote_average": 7.3,
            "overview": "A case of the flu quickly morphs into a pandemic. As the death toll mounts and the living panic, the government plans extreme measures to contain it.",
            "release_date": "2013-08-14"
        },
        {
            "popularity": 74.343,
            "vote_count": 32,
            "video": false,
            "poster_path": "/pTamgU6ZofNQeCAlwyjMvy7lKSx.jpg",
            "id": 665251,
            "adult": false,
            "backdrop_path": "/mluxnTYUSTRh7GtpZmkGAh9L6zQ.jpg",
            "original_language": "ja",
            "original_title": "オルタード・カーボン：リスリーブド",
            "genre_ids": [
                16,
                80,
                18,
                14,
                9648,
                878
            ],
            "title": "Altered Carbon: Resleeved",
            "vote_average": 5.6,
            "overview": "On the planet Latimer, Takeshi Kovacs must protect a tattooist while investigating the death of a yakuza boss alongside a no-nonsense CTAC.",
            "release_date": "2020-03-19"
        },
        {
            "popularity": 73.754,
            "vote_count": 1754,
            "video": false,
            "poster_path": "/pIcV8XXIIvJCbtPoxF9qHMKdRr2.jpg",
            "id": 338967,
            "adult": false,
            "backdrop_path": "/3ghImmHdp4RnC3UkL6hpLayclnb.jpg",
            "original_language": "en",
            "original_title": "Zombieland: Double Tap",
            "genre_ids": [
                28,
                35,
                27
            ],
            "title": "Zombieland: Double Tap",
            "vote_average": 6.9,
            "overview": "Columbus, Tallahassee, Wichita, and Little Rock move to the American heartland as they face off against evolved zombies, fellow survivors, and the growing pains of the snarky makeshift family.",
            "release_date": "2019-10-09"
        },
        {
            "popularity": 73.424,
            "vote_count": 16,
            "video": false,
            "poster_path": "/1pnGF3bX0giCc9FFXH2CUIyE1hq.jpg",
            "id": 625489,
            "adult": false,
            "backdrop_path": null,
            "original_language": "tr",
            "original_title": "Recep İvedik 6",
            "genre_ids": [
                35
            ],
            "title": "Recep İvedik 6",
            "vote_average": 4.8,
            "overview": "",
            "release_date": "2019-11-07"
        },
        {
            "popularity": 72.597,
            "id": 671,
            "video": false,
            "vote_count": 15960,
            "vote_average": 7.8,
            "title": "Harry Potter and the Philosopher's Stone",
            "release_date": "2001-11-16",
            "original_language": "en",
            "original_title": "Harry Potter and the Philosopher's Stone",
            "genre_ids": [
                12,
                14,
                10751
            ],
            "backdrop_path": "/hziiv14OpD73u9gAak4XDDfBKa2.jpg",
            "adult": false,
            "overview": "Harry Potter has lived under the stairs at his aunt and uncle's house his whole life. But on his 11th birthday, he learns he's a powerful wizard -- with a place waiting for him at the Hogwarts School of Witchcraft and Wizardry. As he learns to harness his newfound powers with the help of the school's kindly headmaster, Harry uncovers the truth about his parents' deaths -- and about the villain who's to blame.",
            "poster_path": "/gHPtCmMeDqjaGqnMrWGDmD3nKd2.jpg"
        }
    ]
}
